trump,64,11-26-18 6:08
flu,30,11-26-18 6:08
measles,1,11-26-18 6:08
trump,130,11-24-18 18:08
flu,32,11-24-18 18:08
headache,3,11-24-18 18:08
diarrhea,1,11-24-18 18:08
trump,151,11-24-18 19:08
flu,25,11-24-18 19:08
ebola,1,11-24-18 19:08
ebola,1,11-26-18 19:08
trump,47,11-25-18 5:08
flu,19,11-25-18 5:08
measles,1,11-25-18 5:08
ebola,1,11-25-18 5:08
trump,179,11-25-18 15:08
flu,24,11-25-18 15:08
ebola,2,11-25-18 15:08
measles,1,11-25-18 15:08
trump,161,11-24-18 12:08
flu,35,11-24-18 12:08
diarrhea,1,11-24-18 12:08
trump,51,11-25-18 3:08
flu,16,11-25-18 3:08
measles,1,11-25-18 3:08
trump,291,11-26-18 10:08
flu,39,11-26-18 10:08
measles,1,11-26-18 10:08
headache,1,11-26-18 10:08
trump,232,11-25-18 21:08
flu,28,11-25-18 21:08
headache,3,11-25-18 21:08
zika,1,11-25-18 21:08
trump,145,11-24-18 16:08
flu,32,11-24-18 16:08
headache,4,11-24-18 16:08
trump,71,11-25-18 2:08
flu,9,11-25-18 2:08
measles,1,11-25-18 2:08
trump,48,11-25-18 7:08
flu,23,11-25-18 7:08
trump,332,11-26-18 16:08
flu,35,11-26-18 16:08
measles,3,11-26-18 16:08
ebola,3,11-26-18 16:08
headache,1,11-26-18 16:08
trump,255,11-25-18 12:08
flu,32,11-25-18 12:08
ebola,5,11-25-18 12:08
headache,4,11-25-18 12:08
trump,102,11-25-18 8:08
flu,34,11-25-18 8:08
zika,2,11-25-18 8:08